{
  "defaultConnection": "default",
  "connections": {
    "default": {
      "connector": "bookshelf",
      "settings": {
        "client": "mysql",
        "database2": "${process.env.DBNAME || 'utmb'}",
        "database": "oman",
        "host": "127.0.0.1",
        "port": 3306,
        "username": "root",
        "password": "joystick"
      },
      "options": {}
    }
  }
}
